{
  "$schema": "http://json-schema.org/draft-07/schema#",
  "$id": "issue.schema.json",
  "title": "Issue",
  "description": "An issue for ticketing",
  "type": "object",
  "properties": {
    "title": {
      "desciption": "Title of the issue",
      "type": "string"
    },
    "description": {
      "description": "Description of the issue",
      "type": "string"
    },
    "status": {
      "description": "Status of the issue",
      "type": "string",
      "enum": [
        "OPEN",
        "PENDING",
        "CLOSED"
      ]
    }
  },
  "required": ["title", "description", "status"]
}